(footprint "D_SMA" (version 20211014) (generator pcbnew)
  (layer "F.Cu")
  (tedit 586432E5)
  (descr "Diode SMA (DO-214AC)")
  (tags "Diode SMA (DO-214AC)")
  (solder_mask_margin 0.1)
  (solder_paste_margin -0.1)
  (attr smd)
  (fp_text reference "REF**" (at 0 -2.5) (layer "F.SilkS")
    (effects (font (size 1 1) (thickness 0.15)))
    (tstamp 255c78e1-20fa-4faf-ac02-d825a56e5fd2)
  )
  (fp_text value "D_SMA" (at 0 2.6) (layer "F.Fab") hide
    (effects (font (size 1 1) (thickness 0.15)))
    (tstamp 14a1b64c-c216-4c6c-a26b-afe7b1e09c36)
  )
  (fp_text user "${REFERENCE}" (at 0 -2.5) (layer "F.Fab")
    (effects (font (size 1 1) (thickness 0.15)))
    (tstamp 51d1cd25-b2e3-4601-95aa-cc11614a50c9)
  )
  (fp_line (start -3.5 -1.65) (end 2 -1.65) (layer "F.SilkS") (width 0.12) (tstamp 5bab4c41-10ae-4544-8538-06072d17523a))
  (fp_line (start -3.5 1.65) (end 2 1.65) (layer "F.SilkS") (width 0.12) (tstamp 9081e01a-f91a-4eed-9bfe-abe50f9f3b79))
  (fp_line (start -3.5 -1.65) (end -3.5 1.65) (layer "F.SilkS") (width 0.12) (tstamp cb670089-b1d2-4938-9214-91506d6197bd))
  (fp_line (start 3.5 -1.75) (end 3.5 1.75) (layer "F.CrtYd") (width 0.05) (tstamp 1ea3f7f8-4f75-4cf4-9012-6620ef816105))
  (fp_line (start 3.5 1.75) (end -3.6 1.75) (layer "F.CrtYd") (width 0.05) (tstamp 28095f3f-2f09-4c7c-a44c-358f574f59f8))
  (fp_line (start -3.6 -1.75) (end 3.5 -1.75) (layer "F.CrtYd") (width 0.05) (tstamp 768661ea-dbe1-4d93-9a36-3f63f5441f6d))
  (fp_line (start -3.6 1.75) (end -3.6 -1.75) (layer "F.CrtYd") (width 0.05) (tstamp dd0dd104-988f-4ab2-8921-b26034acc1f2))
  (fp_line (start 2.3 -1.5) (end 2.3 1.5) (layer "F.Fab") (width 0.1) (tstamp 0d4eff56-46f5-4f7c-a6d0-4b8d26a7174f))
  (fp_line (start 2.3 -1.5) (end -2.3 -1.5) (layer "F.Fab") (width 0.1) (tstamp 1bdc8a43-a091-487d-a94d-77639a9d7a77))
  (fp_line (start -2.3 1.5) (end -2.3 -1.5) (layer "F.Fab") (width 0.1) (tstamp 791812b7-55b1-4bce-bb92-36382966def1))
  (fp_line (start 0.50118 0.75032) (end 0.50118 -0.79908) (layer "F.Fab") (width 0.1) (tstamp 7ef01309-727f-473f-aca0-52c69eb6a612))
  (fp_line (start -0.64944 -0.79908) (end -0.64944 0.80112) (layer "F.Fab") (width 0.1) (tstamp b4e67bb9-876a-445e-a311-46b33a61f64a))
  (fp_line (start -0.64944 0.00102) (end 0.50118 -0.79908) (layer "F.Fab") (width 0.1) (tstamp b6c24998-bdd4-47ac-a3ff-9b2f51d47b40))
  (fp_line (start 0.50118 0.00102) (end 1.4994 0.00102) (layer "F.Fab") (width 0.1) (tstamp de8678d9-e2e8-4095-a2ac-434223526dbd))
  (fp_line (start -0.64944 0.00102) (end -1.55114 0.00102) (layer "F.Fab") (width 0.1) (tstamp f0cd065f-e393-4165-84b1-0e6a2fa022ad))
  (fp_line (start 2.3 1.5) (end -2.3 1.5) (layer "F.Fab") (width 0.1) (tstamp fa9c4c35-6476-471d-9699-400f978d4b95))
  (fp_line (start -0.64944 0.00102) (end 0.50118 0.75032) (layer "F.Fab") (width 0.1) (tstamp fc5a1c43-a1a6-4553-95db-e27b5bfa5b59))
  (pad "1" smd rect (at -2 0) (size 2.5 1.8) (layers "F.Cu" "F.Paste" "F.Mask") (tstamp 7ddd44a6-8ee8-4eb9-8c65-6e7e02d37758))
  (pad "2" smd rect (at 2 0) (size 2.5 1.8) (layers "F.Cu" "F.Paste" "F.Mask") (tstamp 7127fdb6-0da2-40bc-912b-3f54f1e12da6))
  (model "${RYSIU_LIB}/rysiu-footprints-diodes.pretty/D_SMA.step" hide
    (offset (xyz 0 0 0))
    (scale (xyz 1 1 1))
    (rotate (xyz 0 0 0))
  )
  (model "${KIPRJMOD}/lib.pretty/D_SMA.step"
    (offset (xyz 0 0 0))
    (scale (xyz 1 1 1))
    (rotate (xyz 0 0 0))
  )
)
