(footprint "QFN-14_3.5mmx3.5mmx1mm_P0.5mm_TI_VQFN-14_RGY0014B" (version 20211014) (generator pcbnew)
  (layer "F.Cu")
  (tedit 5D08EC14)
  (descr "14-Lead QFN (3.5mm x 3.5mm x 1mm)  0.50mm pitch (https://www.ti.com/lit/ds/symlink/tusb213.pdf?ts=1668992546623#page=20)")
  (tags "QFN 10 VQFN14 RGY0014B")
  (solder_mask_margin 0.07)
  (solder_paste_margin -0.05)
  (attr smd)
  (fp_text reference "REF**" (at 0 -2.9) (layer "F.SilkS")
    (effects (font (size 1 1) (thickness 0.15)))
    (tstamp 7b827ece-9379-4019-870e-c3340c642390)
  )
  (fp_text value "QFN-14_3.5mmx3.5mmx1mm_P0.5mm_TI_VQFN-14_RGY0014B" (at 0 3) (layer "F.Fab") hide
    (effects (font (size 1 1) (thickness 0.15)))
    (tstamp 398753e1-77b0-4689-9973-6945d4a6a083)
  )
  (fp_text user "${REFERENCE}" (at 0 -2.9) (layer "F.Fab")
    (effects (font (size 1 1) (thickness 0.15)))
    (tstamp 6e9076e9-c3af-4297-bd47-2c7d2d0fe554)
  )
  (fp_line (start 1.1 -1.75) (end 1.75 -1.75) (layer "F.SilkS") (width 0.12) (tstamp 09e634bc-5cb1-4aa1-8c53-03301eb69853))
  (fp_line (start 1.75 1.75) (end 1.75 1.35) (layer "F.SilkS") (width 0.12) (tstamp 1f93b370-58c9-4f8c-bc46-ee496ef0d9e8))
  (fp_line (start 1.1 1.75) (end 1.75 1.75) (layer "F.SilkS") (width 0.12) (tstamp 34f71828-a948-454f-b65c-e29c5a6b137c))
  (fp_line (start 0.4 -1.75) (end -0.4 -1.75) (layer "F.SilkS") (width 0.12) (tstamp 381edd3f-eaf6-4a3a-9246-ba4f4e877600))
  (fp_line (start 0.4 1.75) (end -0.4 1.75) (layer "F.SilkS") (width 0.12) (tstamp 3bda3422-30cd-4ff7-a6c5-7e7a3f195771))
  (fp_line (start -1.75 1.75) (end -1.75 1.35) (layer "F.SilkS") (width 0.12) (tstamp 54a48c38-8852-4077-86f2-254b84cc098a))
  (fp_line (start -1.095 1.75) (end -1.75 1.75) (layer "F.SilkS") (width 0.12) (tstamp 57585951-3a23-4d08-a661-c26f8fceb456))
  (fp_line (start -1.75 -1.75) (end -1.75 -1.35) (layer "F.SilkS") (width 0.12) (tstamp 72848119-a843-4681-a410-ad24da2e30af))
  (fp_line (start -1.1 -1.75) (end -1.75 -1.75) (layer "F.SilkS") (width 0.12) (tstamp bfd392dc-5f01-4c38-8ff3-1f1d452b60ca))
  (fp_line (start 1.75 -1.75) (end 1.75 -1.35) (layer "F.SilkS") (width 0.12) (tstamp ff58cd87-fb6a-4cf1-b7b6-70fda12b09e5))
  (fp_circle (center -2 -2) (end -1.9 -2) (layer "F.SilkS") (width 0.1) (fill solid) (tstamp 55e7bd81-929a-4586-bd0e-384eb7755d71))
  (fp_line (start 2.2 2.2) (end 2.2 -2.2) (layer "F.CrtYd") (width 0.05) (tstamp 38eab73b-59ae-4c14-9fbe-5c111c0c3f8a))
  (fp_line (start -2.2 -2.2) (end -2.2 2.2) (layer "F.CrtYd") (width 0.05) (tstamp 4115ddf8-a078-4d9f-816a-061188005011))
  (fp_line (start 2.2 -2.2) (end -2.2 -2.2) (layer "F.CrtYd") (width 0.05) (tstamp 736115a4-c527-4b37-8bfe-3b2377e477b4))
  (fp_line (start -2.2 2.2) (end 2.2 2.2) (layer "F.CrtYd") (width 0.05) (tstamp b1812d43-7e9c-4dcf-a77f-f46e0eda99db))
  (fp_line (start 1.65 -1.65) (end 1.65 1.65) (layer "F.Fab") (width 0.1) (tstamp 4b99e64c-0cb4-4392-b4cf-d6571b07f72d))
  (fp_line (start -1.65 1.65) (end -1.65 -1.65) (layer "F.Fab") (width 0.1) (tstamp 4ca28092-41ba-4465-8f6b-5707bc75cb12))
  (fp_line (start 1.65 1.65) (end -1.65 1.65) (layer "F.Fab") (width 0.1) (tstamp 69637315-1e8a-49cc-97dd-8ab070cee2b7))
  (fp_line (start -1.65 -1.65) (end 1.65 -1.65) (layer "F.Fab") (width 0.1) (tstamp 77e849d2-0ff1-4e14-89bb-5e887ab7fb19))
  (fp_circle (center -1.3 -1.3) (end -1.2 -1.3) (layer "F.Fab") (width 0.1) (fill solid) (tstamp a615a9a4-cd55-498b-800a-c536b08c5cae))
  (pad "" smd rect (at -0.6 0) (size 0.51 0.5) (layers "F.Paste") (tstamp 6c627b7d-8074-480e-8e28-1cbf7817d251))
  (pad "" smd rect (at 0 0.6) (size 0.51 0.5) (layers "F.Paste") (tstamp 7ad106d4-f2c5-48d0-a01f-00e9b791c197))
  (pad "" smd rect (at 0.6 0) (size 0.51 0.5) (layers "F.Paste") (tstamp 9b860c3e-05fc-4cf0-8dab-c4207acddf67))
  (pad "" smd rect (at 0 -0.6) (size 0.51 0.5) (layers "F.Paste") (tstamp eb0d53aa-2195-4711-b689-6e60a6e733f2))
  (pad "1" smd roundrect (at -0.75 -1.65 90) (size 0.6 0.25) (layers "F.Cu" "F.Paste" "F.Mask") (roundrect_rratio 0.25)
    (zone_connect 2) (tstamp 2058267b-a8c9-400d-9a0c-5baf316b5cae))
  (pad "2" smd roundrect (at -1.65 -1) (size 0.6 0.25) (layers "F.Cu" "F.Paste" "F.Mask") (roundrect_rratio 0.25)
    (zone_connect 2) (tstamp 889e6d76-e167-4398-a55d-ad8edfaf1e48))
  (pad "3" smd roundrect (at -1.65 -0.5) (size 0.6 0.25) (layers "F.Cu" "F.Paste" "F.Mask") (roundrect_rratio 0.25)
    (zone_connect 2) (tstamp c50d70f4-fc2d-4b11-b24a-85396c69580d))
  (pad "4" smd roundrect (at -1.65 0) (size 0.6 0.25) (layers "F.Cu" "F.Paste" "F.Mask") (roundrect_rratio 0.25)
    (zone_connect 2) (tstamp 86334c03-02f1-4979-ae34-05857e4c492c))
  (pad "5" smd roundrect (at -1.65 0.5) (size 0.6 0.25) (layers "F.Cu" "F.Paste" "F.Mask") (roundrect_rratio 0.25)
    (zone_connect 2) (tstamp 16c6af70-e3c2-4d4e-af08-4db3c54390d5))
  (pad "6" smd roundrect (at -1.65 1) (size 0.6 0.25) (layers "F.Cu" "F.Paste" "F.Mask") (roundrect_rratio 0.25)
    (zone_connect 2) (tstamp 3d742d83-f47d-4e92-ae77-b63c3be8df09))
  (pad "7" smd roundrect (at -0.75 1.65 90) (size 0.6 0.25) (layers "F.Cu" "F.Paste" "F.Mask") (roundrect_rratio 0.25)
    (zone_connect 2) (tstamp 2df273d0-c661-4633-9389-34ef29742585))
  (pad "8" smd roundrect (at 0.75 1.65 90) (size 0.6 0.25) (layers "F.Cu" "F.Paste" "F.Mask") (roundrect_rratio 0.25)
    (zone_connect 2) (tstamp bb158250-197e-4f64-b207-24dfbd6f958c))
  (pad "9" smd roundrect (at 1.65 1) (size 0.6 0.25) (layers "F.Cu" "F.Paste" "F.Mask") (roundrect_rratio 0.25)
    (zone_connect 2) (tstamp 5705cfc3-1ebf-4f3e-a3a3-418d04f8f6e4))
  (pad "10" smd roundrect (at 1.65 0.5) (size 0.6 0.25) (layers "F.Cu" "F.Paste" "F.Mask") (roundrect_rratio 0.25)
    (zone_connect 2) (tstamp da791c82-1b2d-48e5-b7bd-0079689a991c))
  (pad "11" smd roundrect (at 1.65 0) (size 0.6 0.25) (layers "F.Cu" "F.Paste" "F.Mask") (roundrect_rratio 0.25)
    (zone_connect 2) (tstamp 96bad42c-8317-4198-b537-2a0b98426bd8))
  (pad "12" smd roundrect (at 1.65 -0.5) (size 0.6 0.25) (layers "F.Cu" "F.Paste" "F.Mask") (roundrect_rratio 0.25)
    (zone_connect 2) (tstamp 8d54672a-7bdb-4e20-b7de-e1b8cc20627d))
  (pad "13" smd roundrect (at 1.65 -1) (size 0.6 0.25) (layers "F.Cu" "F.Paste" "F.Mask") (roundrect_rratio 0.25)
    (zone_connect 2) (tstamp 49de2a41-44da-447a-9668-91dc33ebdc1b))
  (pad "14" smd roundrect (at 0.75 -1.65 90) (size 0.6 0.25) (layers "F.Cu" "F.Paste" "F.Mask") (roundrect_rratio 0.25)
    (zone_connect 2) (tstamp 178134ea-3ca0-4325-9140-3d4f20e06385))
  (pad "15" thru_hole circle (at 0.6 -0.6) (size 0.6 0.6) (drill 0.3) (layers *.Cu) (tstamp 4b82171d-2302-4b9f-b345-114f3d9b45de))
  (pad "15" thru_hole circle (at 0 0) (size 0.6 0.6) (drill 0.3) (layers *.Cu) (tstamp 70d467e6-8b48-4019-86a5-0f37b1d6257d))
  (pad "15" thru_hole circle (at -0.6 0.6) (size 0.6 0.6) (drill 0.3) (layers *.Cu) (tstamp 7d9a51f2-0d4f-4774-ba75-b8e4cb9a0c1c))
  (pad "15" smd rect (at 0 0) (size 2.05 2.05) (layers "F.Cu" "F.Mask") (tstamp e26b99be-0f5e-4a29-89c3-eb4066c880db))
  (pad "15" thru_hole circle (at 0.6 0.6) (size 0.6 0.6) (drill 0.3) (layers *.Cu) (tstamp f412b2ba-1fae-49c8-9ddc-2abd682b09b7))
  (pad "15" thru_hole circle (at -0.6 -0.6) (size 0.6 0.6) (drill 0.3) (layers *.Cu) (tstamp f7a24324-368b-4d47-b19a-cfcda8a3ac4a))
  (model "${RYSIU_LIB}/rysiu-footprints-dfn-qfn.pretty/TI_VQFN-14_RGY0014A.stp" hide
    (offset (xyz 0 0 0))
    (scale (xyz 1 1 1))
    (rotate (xyz 0 0 0))
  )
  (model "${KIPRJMOD}/lib.pretty/TI_VQFN-14_RGY0014A.stp"
    (offset (xyz 0 0 0))
    (scale (xyz 1 1 1))
    (rotate (xyz 0 0 0))
  )
)
