(footprint "R_Axial_DIN0207_L6.3mm_D2.5mm_P7.62mm_Horizontal" (version 20211014) (generator pcbnew)
  (layer "F.Cu")
  (tedit 5AE5139B)
  (descr "Resistor, Axial_DIN0207 series, Axial, Horizontal, pin pitch=7.62mm, 6.3*2.5mm")
  (tags "Resistor Axial 7.62mm 6.3mm 2.5mm")
  (solder_mask_margin 0.1)
  (attr through_hole)
  (fp_text reference "REF**" (at 3.81 -2.37) (layer "F.SilkS")
    (effects (font (size 1 1) (thickness 0.15)))
    (tstamp 079b71c1-272b-44c5-bcd0-8369ce1f9622)
  )
  (fp_text value "R_Axial_DIN0207_L6.3mm_D2.5mm_P7.62mm_Horizontal" (at 3.81 2.37) (layer "F.Fab") hide
    (effects (font (size 1 1) (thickness 0.15)))
    (tstamp 0fe5d38b-8d46-4435-9118-3c24556c0c11)
  )
  (fp_text user "${REFERENCE}" (at 3.81 0) (layer "F.Fab")
    (effects (font (size 1 1) (thickness 0.15)))
    (tstamp b881bdff-47f9-4fb2-82fe-973b7d6b31ba)
  )
  (fp_line (start 7.08 1.37) (end 7.08 1.04) (layer "F.SilkS") (width 0.12) (tstamp 0f8cb0f1-45dc-47bc-a510-47dde0487652))
  (fp_line (start 0.54 -1.37) (end 7.08 -1.37) (layer "F.SilkS") (width 0.12) (tstamp 2e70b9cb-d0da-49d1-a1aa-d3013c9c33c1))
  (fp_line (start 0.54 1.37) (end 7.08 1.37) (layer "F.SilkS") (width 0.12) (tstamp 49705ae0-408a-48f0-b28e-0bf040d494ed))
  (fp_line (start 0.54 1.04) (end 0.54 1.37) (layer "F.SilkS") (width 0.12) (tstamp 7c2e1e61-f47b-476d-8d50-c84e102846f3))
  (fp_line (start 0.54 -1.04) (end 0.54 -1.37) (layer "F.SilkS") (width 0.12) (tstamp aae5dbbe-8366-4cda-90bf-4292e04e37f0))
  (fp_line (start 7.08 -1.37) (end 7.08 -1.04) (layer "F.SilkS") (width 0.12) (tstamp ca6e93fc-5a2c-4196-93b5-f560994bc0d3))
  (fp_line (start -1.05 1.5) (end 8.67 1.5) (layer "F.CrtYd") (width 0.05) (tstamp 26336cb5-b9c7-4e21-9c47-7c87d307a913))
  (fp_line (start 8.67 -1.5) (end -1.05 -1.5) (layer "F.CrtYd") (width 0.05) (tstamp 7b98a273-1119-4425-8b9e-43a20e364bcb))
  (fp_line (start -1.05 -1.5) (end -1.05 1.5) (layer "F.CrtYd") (width 0.05) (tstamp e960ba1a-f402-4bdc-865a-518b14928ed5))
  (fp_line (start 8.67 1.5) (end 8.67 -1.5) (layer "F.CrtYd") (width 0.05) (tstamp ee9efa6b-256c-4957-a863-fd65cf469171))
  (fp_line (start 0 0) (end 0.66 0) (layer "F.Fab") (width 0.1) (tstamp 2c430a0e-fb9a-4afe-b12d-05b62bc40cfe))
  (fp_line (start 7.62 0) (end 6.96 0) (layer "F.Fab") (width 0.1) (tstamp 315b88c2-0634-484e-8743-254d6e1754c3))
  (fp_line (start 0.66 1.25) (end 6.96 1.25) (layer "F.Fab") (width 0.1) (tstamp 758b7093-1854-419b-8ade-6f7778dc42f1))
  (fp_line (start 6.96 1.25) (end 6.96 -1.25) (layer "F.Fab") (width 0.1) (tstamp 7884e11d-2b2c-459b-ba16-34a95639734a))
  (fp_line (start 0.66 -1.25) (end 0.66 1.25) (layer "F.Fab") (width 0.1) (tstamp b6723d18-bbf6-4d85-8cf5-37d5a5f10656))
  (fp_line (start 6.96 -1.25) (end 0.66 -1.25) (layer "F.Fab") (width 0.1) (tstamp deebf0d2-8a7b-4de4-adfa-96b6b323cc02))
  (pad "1" thru_hole circle (at 0 0) (size 1.6 1.6) (drill 0.8) (layers *.Cu *.Mask) (tstamp 32cc01dd-25d9-493c-bff4-fa87a66fce10))
  (pad "2" thru_hole oval (at 7.62 0) (size 1.6 1.6) (drill 0.8) (layers *.Cu *.Mask) (tstamp b5d7785e-1c71-4baa-a1ae-6a5a6fd8b46d))
  (model "${RYSIU_LIB}/rysiu-footprints-passives.pretty/R_Axial_DIN0207_L6.3mm_D2.5mm_P7.62mm_Horizontal.step" hide
    (offset (xyz 0 0 0))
    (scale (xyz 1 1 1))
    (rotate (xyz 0 0 0))
  )
  (model "${KIPRJMOD}/lib.pretty/R_Axial_DIN0207_L6.3mm_D2.5mm_P7.62mm_Horizontal.step"
    (offset (xyz 0 0 0))
    (scale (xyz 1 1 1))
    (rotate (xyz 0 0 0))
  )
)
