(footprint "Solder_Jumper-0603" (version 20211014) (generator pcbnew)
  (layer "F.Cu")
  (tedit 5F68FEEE)
  (descr "Bridged Solder Jumper 0603 Size")
  (tags "net tie Solder Jumper 0603")
  (solder_mask_margin 0.1)
  (attr exclude_from_pos_files exclude_from_bom)
  (fp_text reference "REF**" (at 0 -1.43) (layer "F.SilkS")
    (effects (font (size 1 1) (thickness 0.15)))
    (tstamp 6df974b4-b819-4abf-a570-cfac24b90f22)
  )
  (fp_text value "R_0603_1608Metric" (at 0 1.43) (layer "F.Fab") hide
    (effects (font (size 1 1) (thickness 0.15)))
    (tstamp 43a2d3f9-8880-4891-bb65-e1f1adf1c2a5)
  )
  (fp_text user "${REFERENCE}" (at 0 0) (layer "F.Fab") hide
    (effects (font (size 0.4 0.4) (thickness 0.06)))
    (tstamp 2dfd6efa-e1ab-4e55-ab2b-7f9e70f33afa)
  )
  (fp_rect (start 0.425 -0.275) (end -0.425 0.275) (layer "F.Cu") (width 0.1) (fill solid) (tstamp ce2a63c4-86dc-4410-9d46-c639c5d5ddc7))
  (fp_rect (start -0.425 0.375) (end 0.425 -0.375) (layer "F.Mask") (width 0.12) (fill solid) (tstamp 173578c1-aa0e-4a19-84e2-ca0562b6d3ed))
  (fp_line (start -1.48 -0.73) (end 1.48 -0.73) (layer "F.CrtYd") (width 0.05) (tstamp 24e272be-4051-4b9b-9127-1c7f22532469))
  (fp_line (start 1.48 -0.73) (end 1.48 0.73) (layer "F.CrtYd") (width 0.05) (tstamp 2bbe1e5e-3213-443e-930c-a0ae97a345e1))
  (fp_line (start -1.48 0.73) (end -1.48 -0.73) (layer "F.CrtYd") (width 0.05) (tstamp 39fddbf8-ad85-4516-95fc-b7f57b1b5476))
  (fp_line (start 1.48 0.73) (end -1.48 0.73) (layer "F.CrtYd") (width 0.05) (tstamp dc275714-5365-4c02-a2fb-5cbd77201d52))
  (pad "1" smd roundrect (at -0.825 0) (size 0.8 0.95) (layers "F.Cu" "F.Mask") (roundrect_rratio 0.25) (tstamp 958f80d5-b7aa-4100-9f8f-c88ef419994d))
  (pad "2" smd roundrect (at 0.825 0) (size 0.8 0.95) (layers "F.Cu" "F.Mask") (roundrect_rratio 0.25) (tstamp dbf61a86-b574-45d2-ba89-95e1ee8fabb2))
)
