Version 4
SHEET 1 880 728
WIRE -368 -288 -560 -288
WIRE -304 -288 -368 -288
WIRE -208 -288 -240 -288
WIRE -48 -288 -128 -288
WIRE 16 -288 -48 -288
WIRE -368 -272 -368 -288
WIRE -560 -256 -560 -288
WIRE -48 -256 -48 -288
WIRE 16 -256 16 -288
WIRE -560 -160 -560 -176
WIRE -368 -160 -368 -192
WIRE -368 -160 -560 -160
WIRE -48 -160 -48 -192
WIRE -48 -160 -368 -160
WIRE 16 -160 16 -192
WIRE 16 -160 -48 -160
WIRE -560 -144 -560 -160
WIRE -256 64 -576 64
WIRE 64 64 -256 64
WIRE 192 64 64 64
WIRE 256 64 192 64
WIRE 304 64 256 64
WIRE 784 64 400 64
WIRE 192 80 192 64
WIRE 256 80 256 64
WIRE 64 96 64 64
WIRE -576 192 -576 64
WIRE 64 192 64 176
WIRE 144 192 64 192
WIRE 192 192 192 144
WIRE 256 192 256 160
WIRE 320 192 320 112
WIRE 320 192 256 192
WIRE 64 208 64 192
WIRE 320 208 320 192
WIRE -96 256 -112 256
WIRE 0 256 -16 256
WIRE 144 256 144 192
WIRE 256 256 144 256
WIRE -576 288 -576 272
WIRE -448 288 -576 288
WIRE 0 288 0 256
WIRE 16 288 0 288
WIRE 256 288 256 256
WIRE 272 288 256 288
WIRE -576 304 -576 288
WIRE 64 336 64 304
WIRE 320 336 320 304
WIRE -752 352 -768 352
WIRE -640 352 -672 352
WIRE -256 400 -256 64
WIRE 192 400 -256 400
WIRE 256 400 192 400
WIRE 320 400 256 400
WIRE 672 400 416 400
WIRE -768 416 -768 352
WIRE 192 416 192 400
WIRE 256 416 256 400
WIRE 672 480 672 400
WIRE 784 480 784 64
WIRE -768 512 -768 496
WIRE -576 512 -576 400
WIRE -576 512 -768 512
WIRE 192 528 192 480
WIRE 256 528 256 496
WIRE 336 528 336 448
WIRE 336 528 256 528
WIRE -768 544 -768 512
WIRE 336 560 336 528
WIRE -256 576 -256 400
WIRE 672 592 672 560
WIRE 784 592 784 560
WIRE 272 608 256 608
WIRE 272 640 272 608
WIRE 288 640 272 640
WIRE -256 688 -256 656
WIRE 336 688 336 656
FLAG 784 592 0
FLAG -256 688 0
FLAG 336 688 0
FLAG -448 288 CTRL
FLAG -768 544 0
FLAG 672 592 0
FLAG 320 336 0
FLAG 64 336 0
FLAG -112 256 CTRL
FLAG 176 608 CTRL
FLAG -560 -144 0
SYMBOL pmos 400 112 M270
WINDOW 0 -22 -11 Left 2
WINDOW 3 -89 -44 Left 2
SYMATTR InstName M1
SYMATTR Value Si4433DY
SYMBOL res 768 464 R0
SYMATTR InstName R1
SYMATTR Value 10
SYMBOL voltage -256 560 R0
WINDOW 123 0 0 Left 0
WINDOW 39 0 0 Left 0
SYMATTR InstName V1
SYMATTR Value 5
SYMBOL res 240 400 R0
SYMATTR InstName R2
SYMATTR Value 100k
SYMBOL cap 176 416 R0
SYMATTR InstName C1
SYMATTR Value 10n
SYMBOL voltage -768 400 R0
WINDOW 123 0 0 Left 0
WINDOW 39 0 0 Left 0
SYMATTR InstName V2
SYMATTR Value PULSE(0 5 0 1n 1n 10m 20m)
SYMBOL pmos 416 448 M270
WINDOW 0 -39 -6 Left 2
WINDOW 3 -90 -36 Left 2
SYMATTR InstName M2
SYMATTR Value Si4433DY
SYMBOL res 656 464 R0
SYMATTR InstName R6
SYMATTR Value 10
SYMBOL res 240 64 R0
SYMATTR InstName R3
SYMATTR Value 100k
SYMBOL cap 176 80 R0
SYMATTR InstName C2
SYMATTR Value 10n
SYMBOL npn -640 304 R0
SYMATTR InstName Q2
SYMATTR Value 2N3904
SYMBOL res -656 336 R90
WINDOW 0 0 56 VBottom 2
WINDOW 3 32 56 VTop 2
SYMATTR InstName R4
SYMATTR Value 220
SYMBOL res -592 176 R0
SYMATTR InstName R5
SYMATTR Value 100k
SYMBOL res 48 80 R0
SYMATTR InstName R7
SYMATTR Value 100k
SYMBOL res 272 592 R90
WINDOW 0 0 56 VBottom 2
WINDOW 3 32 56 VTop 2
SYMATTR InstName R8
SYMATTR Value 0
SYMBOL res 0 240 R90
WINDOW 0 0 56 VBottom 2
WINDOW 3 32 56 VTop 2
SYMATTR InstName R9
SYMATTR Value 0
SYMBOL nmos 16 208 R0
SYMATTR InstName M3
SYMATTR Value 2N7002
SYMBOL nmos 272 208 R0
SYMATTR InstName M4
SYMATTR Value 2N7002
SYMBOL nmos 288 560 R0
SYMATTR InstName M5
SYMATTR Value 2N7002
SYMBOL voltage -560 -272 R0
WINDOW 3 24 44 Left 2
WINDOW 123 24 72 Left 2
WINDOW 39 0 0 Left 0
SYMATTR InstName V3
SYMATTR Value SINE(0 325 50)
SYMATTR Value2 AC 0
SYMBOL cap -240 -304 R90
WINDOW 0 0 32 VBottom 2
WINDOW 3 32 32 VTop 2
SYMATTR InstName C3
SYMATTR Value 47n
SYMBOL res -112 -304 R90
WINDOW 0 0 56 VBottom 2
WINDOW 3 32 56 VTop 2
SYMATTR InstName R10
SYMATTR Value 0
SYMBOL res -352 -176 R180
WINDOW 0 36 76 Left 2
WINDOW 3 36 40 Left 2
SYMATTR InstName R11
SYMATTR Value 1Meg
SYMBOL diode -32 -192 R180
WINDOW 0 24 64 Left 2
WINDOW 3 24 0 Left 2
SYMATTR InstName D1
SYMATTR Value 1N4148
SYMBOL LED 0 -256 R0
SYMATTR InstName D3
SYMATTR Value LXHL-BW02
SYMATTR Description Diode
SYMATTR Type diode
TEXT -384 712 Left 2 !.tran 40m
